BoardID,Alias
Board00.Chan000,ELMB128_18_CAN
Board00.Chan001,ELMB128_18_ANALOG
Board00.Chan002,ELMB128_18_DIGITAL
Board00.Chan003,ELMB128_19_CAN
Board00.Chan004,ELMB128_19_ANALOG
Board00.Chan005,ELMB128_19_DIGITAL
Board01.Chan000,ELMB128_28_CAN
Board01.Chan001,ELMB128_28_ANALOG
Board01.Chan002,ELMB128_28_DIGITAL
Board01.Chan003,ELMB128_29_CAN
Board01.Chan004,ELMB128_29_ANALOG
Board01.Chan005,ELMB128_29_DIGITAL
Board02.Chan000,ELMB2_54_CAN
Board02.Chan001,ELMB2_54_ANALOG
Board02.Chan002,ELMB2_54_DIGITAL
Board02.Chan003,
Board02.Chan004,
Board02.Chan005,
Board03.Chan000,
Board03.Chan001,
Board03.Chan002,
Board03.Chan003,
Board03.Chan004,
Board03.Chan005,
Board04.Chan000,
Board04.Chan001,
Board04.Chan002,
Board04.Chan003,
Board04.Chan004,
Board04.Chan005,
Board05.Chan000,ELMB2_60_CAN
Board05.Chan001,ELMB2_60_ANALOG
Board05.Chan002,ELMB2_60_DIGITAL
Board05.Chan003,
Board05.Chan004,
Board05.Chan005,
